{
	"goToPage-Main": {
		"category": "wm.NavigationVariable",
		"operation": "gotoPage",
		"pageName": "Main",
		"_id": "wm-wm.NavigationVariable1389180517517",
		"name": "goToPage-Main",
		"owner": "App"
	},
	"supportedLocale": {
		"name": "supportedLocale",
		"type": "string",
		"isList": false,
		"owner": "App",
		"dataSet": {
			"en": "English"
		},
		"dataBinding": {
			"dataValue": ""
		},
		"saveInPhonegap": false,
		"category": "wm.Variable",
		"_id": "wm-wm.Variable1402640443182"
	},
	"GoogleapisInvoke": {
		"name": "GoogleapisInvoke",
		"type": "directionsresponse",
		"isList": false,
		"owner": "App",
		"dataSet": {
			"dataValue": ""
		},
		"dataBinding": {
			"origin": "bind:Widgets.text1.datavalue",
			"destination": "bind:Widgets.text2.datavalue",
			"sensor": "false"
		},
		"saveInPhonegap": false,
		"firstRow": 0,
		"maxResults": 20,
		"designMaxResults": 10,
		"operation": "invoke",
		"service": "googleapis",
		"startUpdate": false,
		"autoUpdate": false,
		"inFlightBehavior": "executeLast",
		"transformationRequired": false,
		"serviceType": "RestService",
		"category": "wm.ServiceVariable",
		"_id": "wm-wm.ServiceVariable1409138707576"
	},
	"loginVariable": {
		"type": "string",
		"owner": "App",
		"dataSet": {
			"username": "",
			"password": ""
		},
		"dataBinding": {
			"username": "bind:Widgets.usernametext.datavalue",
			"password": "bind:Widgets.passwordtext.datavalue"
		},
		"saveInPhonegap": false,
		"startUpdate": false,
		"autoUpdate": false,
		"inFlightBehavior": "executeLast",
		"transformationRequired": false,
		"onError": "Javascript",
		"useDefaultSuccessHandler": false,
		"category": "wm.LoginVariable",
		"_id": "wm-wm.LoginVariable1409138825330"
	},
	"logoutVariable": {
		"name": "logoutVariable",
		"type": "string",
		"owner": "App",
		"saveInPhonegap": false,
		"inFlightBehavior": "executeLast",
		"transformationRequired": false,
		"useDefaultSuccessHandler": true,
		"category": "wm.LogoutVariable",
		"_id": "wm-wm.LogoutVariable1409138825333"
	},
	"loggedInUser": {
		"name": "loggedInUser",
		"type": "string",
		"isList": false,
		"owner": "App",
		"dataSet": {
			"name": "",
			"id": "",
			"tenantId": "",
			"roles": []
		},
		"dataBinding": {
			"dataValue": ""
		},
		"saveInPhonegap": false,
		"category": "wm.Variable",
		"_id": "wm-wm.Variable1409138825335"
	}
}